%YAML 1.1
%TAG !u! tag:unity3d.com,2011:
--- !u!114 &11400000
MonoBehaviour:
  m_ObjectHideFlags: 0
  m_PrefabParentObject: {fileID: 0}
  m_PrefabInternal: {fileID: 0}
  m_GameObject: {fileID: 0}
  m_Enabled: 1
  m_EditorHideFlags: 0
  m_Script: {fileID: 11500000, guid: 1bdfe79e336474848808de1467defd7f, type: 3}
  m_Name: Enemy_02
  m_EditorClassIdentifier: 
  spriteCollection: {fileID: 11400000, guid: 5519572209bad4a98bca28366ec72478, type: 2}
  skeletonJSON: {fileID: 4900000, guid: 9a338c521239b2241874586988dba974, type: 3}
  scale: 1
  fromAnimation:
  - c_run
  - c_atk
  toAnimation:
  - c_idle
  - c_idle
  duration:
  - 0
  - 0
  defaultMix: 0
