%YAML 1.1
%TAG !u! tag:unity3d.com,2011:
--- !u!1045 &1
EditorBuildSettings:
  m_ObjectHideFlags: 0
  serializedVersion: 2
  m_Scenes:
  - enabled: 1
    path: Assets/00 Scenes/00 Title_Login.unity
  - enabled: 1
    path: Assets/00 Scenes/21 SceneChanger.unity
  - enabled: 1
    path: Assets/00 Scenes/33 MainMenu.unity
  - enabled: 1
    path: Assets/00 Scenes/KDInGame.unity
  - enabled: 1
    path: Assets/00 Scenes/23 Result.unity
